{
  "json": {
    "version": "1.0",
    "encoding": "utf-8"
  },
  "ns": {
    "absystem": "http://www.irisa.fr/atsyra//absystem"
  },
  "content": [
    {
      "eClass": "absystem:AssetBasedSystem",
      "data": {
        "definitionGroups": [
          {
            "eClass": "absystem:DefinitionGroup",
            "data": {
              "annotations": [
                {
                  "eClass": "absystem:AnnotationEntry",
                  "data": {
                    "value": "Example of security requirements repository 2",
                    "key": "absystem:AnnotationKey building_definitions.json#//@definitionGroups[id='DefinitionGroup-Building_def']/@definitions[id='AnnotationKey-security.repository.name']"
                  }
                },
                {
                  "eClass": "absystem:AnnotationEntry",
                  "data": {
                    "value": "1.0.0",
                    "key": "absystem:AnnotationKey building_definitions.json#//@definitionGroups[id='DefinitionGroup-Building_def']/@definitions[id='AnnotationKey-security.repository.version']"
                  }
                }
              ],
              "name": "ref_demo_2",
              "definitions": [
                {
                  "eClass": "absystem:DefinitionGroup",
                  "data": {
                    "annotations": [
                      {
                        "eClass": "absystem:AnnotationEntry",
                        "data": {
                          "value": "Chapter 1",
                          "key": "absystem:AnnotationKey building_definitions.json#//@definitionGroups[id='DefinitionGroup-Building_def']/@definitions[id='AnnotationKey-security.repository.section.title']"
                        }
                      }
                    ],
                    "name": "chapter_1",
                    "definitions": [
                      {
                        "eClass": "absystem:DefinitionGroup",
                        "data": {
                          "annotations": [
                            {
                              "eClass": "absystem:AnnotationEntry",
                              "data": {
                                "value": "Chapter 1.1",
                                "key": "absystem:AnnotationKey building_definitions.json#//@definitionGroups[id='DefinitionGroup-Building_def']/@definitions[id='AnnotationKey-security.repository.section.title']"
                              }
                            }
                          ],
                          "name": "sub_chatper_1_1",
                          "definitions": [
                            {
                              "eClass": "absystem:Contract",
                              "data": {
                                "guardExpression": {
                                  "eClass": "absystem:BooleanConstant",
                                  "data": {
                                    "value": "true"
                                  }
                                },
                                "name": "test1",
                                "description": "blablabla",
                                "severity": "WARNING"
                              }
                            },
                            {
                              "eClass": "absystem:Contract",
                              "data": {
                                "guardExpression": {
                                  "eClass": "absystem:BooleanConstant",
                                  "data": {
                                    "value": "true"
                                  }
                                },
                                "name": "test2",
                                "description": "blablabla",
                                "severity": "WARNING"
                              }
                            }
                          ]
                        }
                      },
                      {
                        "eClass": "absystem:DefinitionGroup",
                        "data": {
                          "annotations": [
                            {
                              "eClass": "absystem:AnnotationEntry",
                              "data": {
                                "value": "Chapter 1.2",
                                "key": "absystem:AnnotationKey building_definitions.json#//@definitionGroups[id='DefinitionGroup-Building_def']/@definitions[id='AnnotationKey-security.repository.section.title']"
                              }
                            }
                          ],
                          "name": "sub_chatper_1_2",
                          "definitions": [
                            {
                              "eClass": "absystem:DefinitionGroup",
                              "data": {
                                "annotations": [
                                  {
                                    "eClass": "absystem:AnnotationEntry",
                                    "data": {
                                      "value": "Chapter 1.2.1",
                                      "key": "absystem:AnnotationKey building_definitions.json#//@definitionGroups[id='DefinitionGroup-Building_def']/@definitions[id='AnnotationKey-security.repository.section.title']"
                                    }
                                  }
                                ],
                                "name": "sub_chatper_1_2_1"
                              }
                            }
                          ]
                        }
                      }
                    ]
                  }
                },
                {
                  "eClass": "absystem:DefinitionGroup",
                  "data": {
                    "annotations": [
                      {
                        "eClass": "absystem:AnnotationEntry",
                        "data": {
                          "value": "Chapter 2",
                          "key": "absystem:AnnotationKey building_definitions.json#//@definitionGroups[id='DefinitionGroup-Building_def']/@definitions[id='AnnotationKey-security.repository.section.title']"
                        }
                      }
                    ],
                    "name": "chapter_2",
                    "definitions": [
                      {
                        "eClass": "absystem:DefinitionGroup",
                        "data": {
                          "annotations": [
                            {
                              "eClass": "absystem:AnnotationEntry",
                              "data": {
                                "value": "Chapter 2.1",
                                "key": "absystem:AnnotationKey building_definitions.json#//@definitionGroups[id='DefinitionGroup-Building_def']/@definitions[id='AnnotationKey-security.repository.section.title']"
                              }
                            }
                          ],
                          "name": "sub_chatper_2_1"
                        }
                      },
                      {
                        "eClass": "absystem:DefinitionGroup",
                        "data": {
                          "annotations": [
                            {
                              "eClass": "absystem:AnnotationEntry",
                              "data": {
                                "value": "Chapter 2.2",
                                "key": "absystem:AnnotationKey building_definitions.json#//@definitionGroups[id='DefinitionGroup-Building_def']/@definitions[id='AnnotationKey-security.repository.section.title']"
                              }
                            }
                          ],
                          "name": "sub_chatper_2_2"
                        }
                      },
                      {
                        "eClass": "absystem:DefinitionGroup",
                        "data": {
                          "annotations": [
                            {
                              "eClass": "absystem:AnnotationEntry",
                              "data": {
                                "value": "Chapter 2.3",
                                "key": "absystem:AnnotationKey building_definitions.json#//@definitionGroups[id='DefinitionGroup-Building_def']/@definitions[id='AnnotationKey-security.repository.section.title']"
                              }
                            }
                          ],
                          "name": "sub_chatper_2_3"
                        }
                      }
                    ]
                  }
                }
              ]
            }
          }
        ],
        "imports": [
          {
            "eClass": "absystem:Import",
            "data": {
              "importedNamespace": "core::*"
            }
          },
          {
            "eClass": "absystem:Import",
            "data": {
              "importedNamespace": "Building_def::*",
              "importURI": "platform:/resource/mini.building.abs.model.lib/models/building_definitions.abs"
            }
          }
        ]
      }
    }
  ]
}