<?xml version="1.0" encoding="UTF-8" standalone="no"?>
<!-- Uploaded to: SVG Repo, www.svgrepo.com, Generator: SVG Repo Mixer Tools -->

<svg
   fill="#000000"
   height="800px"
   width="800px"
   version="1.1"
   id="Layer_1"
   viewBox="0 0 512 512"
   xml:space="preserve"
   sodipodi:docname="folder_green.svg"
   inkscape:version="1.1.2 (0a00cf5339, 2022-02-04)"
   inkscape:export-filename="/home/dvojtise/git/gitlab_atsyra/atsyra-dev/artwork/icons/folder_green.png"
   inkscape:export-xdpi="1.92"
   inkscape:export-ydpi="1.92"
   xmlns:inkscape="http://www.inkscape.org/namespaces/inkscape"
   xmlns:sodipodi="http://sodipodi.sourceforge.net/DTD/sodipodi-0.dtd"
   xmlns="http://www.w3.org/2000/svg"
   xmlns:svg="http://www.w3.org/2000/svg"><defs
   id="defs15">
	

		
	
			
			
		</defs><sodipodi:namedview
   id="namedview13"
   pagecolor="#ffffff"
   bordercolor="#666666"
   borderopacity="1.0"
   inkscape:pageshadow="2"
   inkscape:pageopacity="0.0"
   inkscape:pagecheckerboard="0"
   showgrid="false"
   inkscape:zoom="0.805"
   inkscape:cx="399.37888"
   inkscape:cy="398.75776"
   inkscape:window-width="2560"
   inkscape:window-height="1367"
   inkscape:window-x="0"
   inkscape:window-y="0"
   inkscape:window-maximized="1"
   inkscape:current-layer="Layer_1" />
<path
   d="M 501.709,62.606 H 252.141 v -5.467 c 0,-18.68 -15.197,-33.876 -33.876,-33.876 H 33.876 C 15.197,23.262 0,38.459 0,57.139 v 154.05 266.935 0.322 c 0,5.683 4.608,10.291 10.291,10.291 h 491.417 c 5.683,0 10.291,-4.608 10.291,-10.291 V 478.124 160.054 72.898 C 512,67.213 507.392,62.606 501.709,62.606 Z M 20.583,57.139 c 0,-7.33 5.964,-13.294 13.293,-13.294 h 184.388 c 7.33,0 13.293,5.964 13.293,13.293 v 15.759 c 0,5.683 4.608,10.291 10.291,10.291 h 249.568 v 66.573 h -20.583 v -35.698 c 0,-5.683 -4.608,-10.291 -10.291,-10.291 H 51.457 c -5.683,0 -10.291,4.608 -10.291,10.291 v 86.834 H 20.583 Z m 429.668,67.216 v 25.407 H 262.633 c -11.402,0 -21.609,7.226 -25.399,17.98 v 0.001 l -10.185,28.918 c -0.891,2.534 -3.297,4.236 -5.983,4.236 H 61.749 v -76.543 h 388.502 z m 41.166,343.477 H 20.583 V 221.48 h 200.483 v 0 c 11.403,0 21.609,-7.227 25.398,-17.982 l 10.185,-28.918 c 0.893,-2.534 3.298,-4.236 5.984,-4.236 h 228.784 z"
   id="path2"
   style="stroke:none;stroke-opacity:1;fill:#000000;fill-opacity:1" /><path
   d="m 247.834,305.851 c -11.782,-9.709 -26.867,-15.547 -43.291,-15.547 -37.595,0 -68.181,30.586 -68.181,68.181 0,37.595 30.586,68.181 68.181,68.181 28.154,0 52.373,-17.153 62.765,-41.557 l 40.319,13.439 c -0.104,1.213 -0.17,2.437 -0.17,3.675 0,23.408 19.044,42.452 42.452,42.452 23.408,0 42.452,-19.044 42.452,-42.452 0,-23.408 -19.044,-42.452 -42.452,-42.452 -14.879,0 -27.986,7.701 -35.569,19.32 L 272.396,365.11 c 0.211,-2.181 0.327,-4.389 0.327,-6.625 0,-13.757 -4.109,-26.567 -11.146,-37.292 l 44.688,-36.915 c 6.37,3.823 13.819,6.027 21.774,6.027 23.408,0 42.452,-19.044 42.452,-42.452 0,-23.408 -19.043,-42.453 -42.451,-42.453 -23.408,0 -42.452,19.044 -42.452,42.452 0,7.972 2.213,15.435 6.05,21.814 z m 102.076,74.504 c 12.059,0 21.869,9.81 21.869,21.869 0,12.059 -9.81,21.869 -21.869,21.869 -12.059,0 -21.869,-9.81 -21.869,-21.869 -10e-4,-12.059 9.81,-21.869 21.869,-21.869 z m -145.367,25.729 c -26.246,0 -47.598,-21.352 -47.598,-47.598 0,-26.246 21.352,-47.598 47.598,-47.598 26.246,0 47.598,21.352 47.598,47.598 0,26.245 -21.352,47.598 -47.598,47.598 z M 328.04,225.983 c 12.059,0 21.869,9.81 21.869,21.869 0,12.059 -9.81,21.869 -21.869,21.869 -12.059,0 -21.869,-9.81 -21.869,-21.869 0,-12.059 9.81,-21.869 21.869,-21.869 z"
   id="path4" />
<path
   style="fill:#53d200;fill-opacity:1;stroke:none;stroke-width:1.94037;stroke-miterlimit:4;stroke-dasharray:none;stroke-opacity:1"
   d="M 32.919255,538.52748 V 346.62017 l 161.801245,-0.32872 161.80124,-0.32872 5.80828,-2.68433 c 6.59137,-3.04624 16.00486,-11.25658 19.52733,-17.03152 1.30388,-2.13765 6.37589,-15.34626 11.27115,-29.35247 5.51077,-15.76734 9.86752,-26.29376 11.43975,-27.63975 2.39304,-2.04871 12.90559,-2.17391 182.52589,-2.17391 H 767.08075 V 498.75776 730.43478 H 400 32.919255 Z M 560.24845,693.77525 c 43.05116,-9.07884 65.35181,-55.84858 45.82078,-96.09704 -5.13639,-10.58478 -19.17025,-24.04775 -30.54652,-29.30391 -27.65451,-12.77717 -58.29693,-6.66338 -78.5007,15.6625 l -6.64287,7.3406 -31.52498,-10.36159 -31.52497,-10.36159 -0.29632,-7.99791 c -0.75948,-20.49883 -4.9434,-37.27884 -13.14744,-52.72892 l -4.24261,-7.98982 34.30902,-28.33914 34.30903,-28.33913 8.27482,3.44675 c 25.50791,10.62489 54.01566,4.93066 73.46468,-14.67409 26.79769,-27.01226 25.32733,-71.18836 -3.22384,-96.85832 -7.13843,-6.41807 -20.89268,-13.33765 -30.44016,-15.31404 -29.91761,-6.19315 -59.88998,8.52756 -73.40042,36.05006 -8.99178,18.31742 -9.57483,36.096 -1.81952,55.48122 2.68254,6.70528 2.92383,8.24215 1.505,9.58567 -0.92937,0.88003 -15.1059,12.63827 -31.50342,26.12943 -16.39751,13.49115 -30.65217,25.24263 -31.67702,26.11441 -1.55796,1.32525 -3.38164,0.58304 -11.12704,-4.52855 -19.10924,-12.61114 -39.19143,-17.96454 -63.40122,-16.90113 -18.2516,0.8017 -26.37849,2.7903 -41.8114,10.23099 -37.36753,18.01609 -60.0743,54.34573 -60.04914,96.07547 0.0297,49.35074 30.95841,89.74252 79.29977,103.56283 7.72047,2.20719 12.78605,2.72364 26.9027,2.74277 20.92935,0.0283 29.25122,-1.82406 47.20497,-10.50763 20.26156,-9.79977 37.28191,-25.99533 47.24544,-44.95596 2.49498,-4.74796 5.18356,-8.39314 5.97463,-8.10042 0.79107,0.29272 14.71471,4.93565 30.94142,10.31761 l 29.5031,9.78539 0.0184,6.8521 c 0.0804,29.97137 22.65587,57.49846 52.46673,63.97435 10.24936,2.22649 17.1064,2.22824 27.63913,0.007 z"
   id="path1054"
   transform="scale(0.64)" /><path
   style="fill:#53d266;fill-opacity:1;stroke:none;stroke-width:1.94037;stroke-miterlimit:4;stroke-dasharray:none;stroke-opacity:1"
   d="M 32.919255,538.50932 V 346.58385 l 162.422355,-0.0117 162.42237,-0.0117 6.22064,-3.56822 c 7.89204,-4.5269 15.97504,-12.34364 19.03393,-18.40686 1.3068,-2.5903 5.30078,-12.81523 8.8755,-22.72207 8.50062,-23.5583 12.26542,-31.9573 14.76057,-32.92985 1.12257,-0.43755 82.67768,-1.12155 181.23358,-1.51999 l 179.19255,-0.72445 V 498.56193 730.43478 H 400 32.919255 Z M 561.98371,693.74231 c 16.66327,-3.92788 31.63154,-14.61332 41.19276,-29.40638 11.12888,-17.21855 13.42354,-40.13383 6.01737,-60.09151 -3.62379,-9.76517 -7.95144,-15.88093 -17.6725,-24.97451 -12.70739,-11.88713 -27.59982,-17.77923 -44.93749,-17.77923 -18.13187,0 -32.64518,6.08956 -46.84395,19.65497 l -9.76997,9.33418 -30.69925,-9.94495 -30.69925,-9.94495 -1.55524,-14.7711 c -1.87939,-17.8497 -5.07784,-30.01651 -11.48523,-43.68953 l -4.81552,-10.27605 33.77271,-27.94368 c 22.59751,-18.6973 34.38929,-27.68668 35.63607,-27.16694 17.42624,7.26441 31.58305,9.23238 45.34162,6.30303 44.63775,-9.50382 67.08319,-57.40993 45.83948,-97.83679 -6.35373,-12.09116 -17.43243,-22.31111 -31.19711,-28.77889 -10.19164,-4.78888 -11.79401,-5.16603 -24.15789,-5.68604 -10.97146,-0.46146 -14.69924,-0.1133 -21.73913,2.03038 -23.27271,7.08662 -40.73913,25.41475 -46.95228,49.26869 -2.85711,10.96917 -2.44421,22.22562 1.25955,34.33798 1.74725,5.71407 3.47348,11.56346 3.83605,12.99866 0.55229,2.18624 -4.53716,6.90423 -31.37931,29.08903 -17.62118,14.56375 -32.67778,26.47956 -33.45911,26.47956 -0.78134,0 -5.56604,-2.58372 -10.63265,-5.74161 -22.56735,-14.06561 -52.29246,-19.2653 -79.91785,-13.97969 -26.42335,5.05562 -55.64242,25.96971 -69.49456,49.742 -9.24189,15.86045 -13.37288,30.33861 -14.13431,49.53747 -0.4054,10.22164 -0.0681,19.16606 0.93417,24.77462 7.12906,39.89174 33.32399,69.51057 73.94527,83.61051 9.19332,3.19107 11.37738,3.44805 29.79626,3.50578 12.79536,0.0401 22.30967,-0.54002 26.70808,-1.6285 8.84738,-2.18948 27.50531,-10.93432 36.79827,-17.24709 9.89021,-6.7185 23.90322,-21.7321 30.24133,-32.40071 2.86666,-4.82532 5.98637,-9.41588 6.93268,-10.20124 1.3378,-1.11028 8.29346,0.76217 31.26546,8.41659 l 29.54487,9.84455 0.80161,11.08035 c 1.23181,17.02656 6.76893,28.7488 19.62578,41.5483 16.92606,16.85054 39.26143,23.30524 62.05321,17.93274 z"
   id="path1130"
   transform="scale(0.64)" /><path
   style="fill:#53d266;fill-opacity:1;stroke:none;stroke-width:1.94037;stroke-miterlimit:4;stroke-dasharray:none;stroke-opacity:1"
   d="M 32.919255,198.32035 V 83.597225 l 2.824592,-4.191412 c 1.553525,-2.305276 4.720443,-5.469026 7.037595,-7.030554 l 4.213004,-2.839142 151.036934,0.325109 c 148.83804,0.320376 151.08545,0.36128 154.36902,2.809581 6.98431,5.207674 8.46917,9.981354 8.46917,27.227669 0,17.161774 1.11952,21.593744 6.77217,26.809594 l 3.36566,3.10559 198.03667,0.32185 198.03668,0.32186 v 51.5415 51.5415 H 751.5528 736.02484 l -0.005,-30.12422 c -0.004,-28.02347 -0.17916,-30.41098 -2.51135,-34.23624 -5.0596,-8.29874 21.37696,-7.68923 -333.50853,-7.68923 -354.885494,0 -328.44893,-0.60951 -333.508528,7.68923 -2.435947,3.99543 -2.507161,6.09323 -2.511673,73.98779 l -0.0046,69.87578 h -15.52795 -15.52795 z"
   id="path1206"
   transform="scale(0.64)" /></svg>
